…
    toc()

    ## 0.07 sec elapsed

    nrow(tab_saved)

    ## [1] NA

    tab_collected <- tab %>% collect()
    tab_collected

    ## # A tibble: 2,694 × 19
    ##    PERSON_ID GENDER_CONCEPT_ID YEAR_OF_BIRTH MONTH_OF_BIRTH DAY_OF_BIRTH
    ##        <dbl>             <dbl>         <dbl>          <dbl>        <dbl>
    ##  1         6              8532          1963             12           31
    ##  2       123              8507          1950              4           12
    ##  3       129              8507          1974             10            7
    ##  4        16              8532          1971             10           13
    ##  5        65              8532          1967              3           31
    ##  6        74              8532          1972              1            5
    ##  7        42              8532          1909             11            2
    ##  8       187              8507          1945              7           23
    ##  9        18              8532          1965             11           17
    ## 10       111              8532          1975              5            2
    ## # … with 2,684 more rows, and 14 more variables: BIRTH_DATETIME <date>,
    ## #   RACE <dbl>, ETHNICITY_CONCEPT_ID <dbl>, LOCATION_ID <dbl>,
    ## #   PROVIDER_ID <dbl>, CARE_SITE_ID <dbl>, PERSON_SOURCE_VALUE <chr>,
    ## #   GENDER_SOURCE_VALUE <chr>, GENDER_SOURCE_CONCEPT_ID <dbl>,
    ## #   RACE_SOURCE_VALUE <chr>, RACE_SOURCE_CONCEPT_ID <dbl>,
    ## #   ETHNICITY_SOURCE_VALUE <chr>, ETHNICITY_SOURCE_CONCEPT_ID <dbl>, AGE <dbl>
…
