Writing bespoke code for the OMOP CDM
…
table5 will run instantaneously, and table6 will take a while.

table6 will show the result instantaneously, and table5 will take a while.

collect()

table5 %>% collect()

# A tibble: 2,694 × 6
   person_id   age observation_period_id observation_period…¹ observat…² perio…³
       <dbl> <dbl>                 <dbl> <date>               <date>       <dbl>
 1         6    59                     6 1963-12-31           2007-02-06  4.48e7
 2        16    51                    16 1971-10-14           2017-11-02  4.48e7
 3        42   113                    42 1909-11-03           2019-03-13  4.48e7
 4        18    57                    18 1965-11-17           2018-11-07  4.48e7
 5        35    62                    35 1960-03-22           2018-12-25  4.48e7
 6        40    71                    40 1951-12-05           2018-07-14  4.48e7
 7        53    60                    53 1962-08-15           2019-04-10  4.48e7
 8         9    44                     9 1978-07-20           2018-10-25  4.48e7
 9         2   102                     2 1920-06-01           2008-03-25  4.48e7
10        49    50                    49 1972-11-05           2018-07-08  4.48e7
# … with 2,684 more rows, and abbreviated variable names
#   ¹​observation_period_start_date, ²​observation_period_end_date,
#   ³​period_type_concept_id
…
